Pays,Nom,Poste,Age,Date de naissance,Taille,Poids
France,Cyril BAILLE,Pilier,26 ans,15/09/1993,182,116
Cameroun,Dany PRISO,Pilier,25 ans,02/01/1994,182,110
Angleterre,Maro ITOJE,2ème ligne,25 ans,28/10/1994,196, 115
France,Yacouba CAMARA,3ème ligne,25 ans,02/06/1994,195,112
Pays-de-Galles,George NORTH,Ailier,27 ans,13/04/1992,194, 109
Australie, Billy VUNIPOLA,3ème ligne,27 ans,03/11/1992,188, 130
France,Demba BAMBA,Pilier,21 ans,17/03/1998,185,124
France,Emerick SETIANO,Pilier,23 ans,19/07/1996,183,114
France,Jefferson POIROT,Pilier,27 ans,01/11/1992,181,117
France,Rabah SLIMANI,Pilier,30 ans,18/10/1989,178,113
France,Camille CHAT,Talonneur,24 ans,18/12/1995,178,101
France,Guilhem GUIRADO,Talonneur,33 ans,17/06/1986,183,105
France,Péato MAUVAKA,Talonneur,22 ans,10/01/1997,184,115
France,Félix LAMBEY,2ème ligne,25 ans,15/03/1994,196,110
France,Paul GABRILLAGUES,2ème ligne,26 ans,03/06/1993,199,119
France,Romain TAOFIFENUA,2ème ligne,29 ans,14/09/1990,200,127
France,Sébastien VAHAAMAHINA,2ème ligne,28 ans,21/10/1991,203,120
France,Arthur ITURRIA,3ème ligne,25 ans,13/05/1994,198,112
Afrique du sud,Bernard LE ROUX,3ème ligne,30 ans,04/06/1989,196,113
France,Charles OLLIVON,3ème ligne,26 ans,11/05/1993,199,114
France,François CROS,3ème ligne,25 ans,25/03/1994,190,95
France,Greg ALLDRITT,3ème ligne,22 ans,23/03/1997,191,115
France,Louis PICAMOLES,3ème ligne,33 ans,05/02/1986,192,118
France,Wenceslas LAURET,3ème ligne,30 ans,28/03/1989,188,103
France,Antoine DUPONT,Mêlée,23 ans,15/11/1996,174,82
France,Baptiste SERIN,Mêlée,25 ans,20/06/1994,180,79
France,Maxime MACHENAUD,Mêlée,30 ans,30/12/1988,174,87
France,Camille LOPEZ,Ouverture,30 ans,03/04/1989,176,87
France,Romain NTAMACK,Ouverture,20 ans,01/05/1999,186,84
France,Gaël FICKOU,Centre,25 ans,26/03/1994,190,100
France,Pierre-Louis BARASSI,Centre,21 ans,22/04/1998,188,93
Fidji,Virimi VAKATAWA,Centre,27 ans,01/05/1992,185,98
France,Wesley FOFANA,Centre,31 ans,20/01/1988,182,93
Fidji,Alivereti RAKA,Ailier,25 ans,09/12/1994,189,97
France,Damian PENAUD,Ailier,23 ans,25/09/1996,192,94
France,Sofiane GUITOUNE,Ailier,30 ans,27/03/1989,186,96
France,Yoann HUGET,Ailier,32 ans,02/06/1987,190,97
France,Maxime MÉDARD,Arrière,33 ans,16/11/1986,180,85
France,Thomas RAMOS,Arrière,24 ans,23/07/1995,178,86
France,Vincent RATTEZ,Arrière,27 ans,24/03/1992,180,78
Angleterre,Dan COLE,Pilier,32 ans,09/05/1987,191, 121
Angleterre,Ellis GENGE,Pilier,24 ans,16/02/1995,187, 118
Angleterre,Harry WILLIAMS,Pilier,28 ans,01/10/1991,191, 132
Angleterre,Joe MARLER,Pilier,29 ans,07/07/1990,183, 113
Angleterre,Kyle SINCKLER,Pilier,26 ans,30/03/1993,176, 122
Nouvelle-Zélande,Mako VUNIPOLA,Pilier,28 ans,13/01/1991,180, 130
Angleterre,Jack SINGLETON,Talonneur, 23 ans,14/05/1996,180, 108
Angleterre,Jamie GEORGE,Talonneur, 29 ans,20/10/1990,183, 106
Angleterre,Luke COWAN-DICKIE,Talonneur, 26 ans,20/06/1993,184, 112
Angleterre,Charlie EWELS,2ème ligne,24 ans,29/06/1995,199, 108
Angleterre,Courtney LAWES,2ème ligne,30 ans,23/02/1989,201, 118
Angleterre,George KRUIS,2ème ligne,29 ans,22/02/1990,197, 117
Angleterre,Joe LAUNCHBURY,2ème ligne,28 ans,12/04/1991,198, 117
Angleterre,Lewis LUDLAM,3ème ligne,24 ans,08/12/1995,189, 101
Angleterre,Mark WILSON,3ème ligne,30 ans,06/10/1989,188, 107
Angleterre,Matt KVESIC,3ème ligne,27 ans,14/04/1992,188, 104
Angleterre,Sam UNDERHILL,3ème ligne,23 ans,22/07/1996,191, 110
Angleterre,Tom CURRY,3ème ligne,21 ans,15/06/1998,185, 102
Angleterre,Ben SPENCER,Mêlée, 27 ans,31/07/1992,180, 89
Angleterre,Ben YOUNGS,Mêlée, 30 ans,05/09/1989,179, 92
Nouvelle-Zélande,Willi HEINZ,Mêlée, 33 ans,24/11/1986,181, 94
Angleterre,George FORD,Ouverture, 26 ans,16/03/1993,175, 84
Angleterre,Henry SLADE,Ouverture, 26 ans,19/03/1993,188, 87
Angleterre,Owen FARRELL,Ouverture, 28 ans,24/09/1991,188, 96
Angleterre,Piers FRANCIS,Ouverture, 29 ans,20/06/1990,182, 92
Angleterre,Elliot DALY,Centre,27 ans,08/10/1992,184, 100
Angleterre,Joe MARCHANT,Centre,23 ans,16/07/1996,184, 87
Angleterre,Jonathan JOSEPH,Centre,28 ans,21/05/1991,183, 95
Angleterre,Manu TUILAGI,Centre,28 ans,18/05/1991,186, 112
Angleterre,Jack NOWELL,Ailier,26 ans,11/04/1993,181, 87
Fidji, Joe COKANASIGA,Ailier,22 ans,15/11/1997,192, 114
Angleterre,Jonny MAY, Ailier,29 ans,01/04/1990,185, 92
Angleterre,Anthony WATSON,Arrière,25 ans,26/02/1994,188, 93
Angleterre,Ruaridh MCCONNOCHIE,Arrière,28 ans,23/10/1991,189, 91
Afrique du sud,Allan DELL,Pilier,27 ans,16/03/1992,185, 112
Ecosse,Gordon REID,Pilier,32 ans,04/03/1987,188, 117
Ecosse,Jamie BHATTI,Pilier,26 ans,08/09/1993,182, 113
Nouvelle-Zélande,Simon BERGHAN,Pilier,29 ans,07/12/1990,193, 126
Afrique du sud,Wp NEL,Pilier,33 ans,30/04/1986,182, 120
Ecosse,Zander FAGERSON,Pilier,23 ans,19/01/1996,188, 115
Ecosse,Fraser BROWN,Talonneur, 30 ans,20/06/1989,182, 102
Ecosse,George TURNER,Talonneur, 27 ans,08/10/1992,181, 106
Ecosse,Grant STEWART,Talonneur, 24 ans,28/02/1995,182, 110
Ecosse,Stuart MCINALLY,Talonneur, 29 ans,09/08/1990,190, 105
Australie, Ben TOOLIS,2ème ligne,27 ans,31/03/1992,202, 115
Nouvelle-Zélande,Blade THOMSON,2ème ligne,29 ans,04/12/1990,198, 107
Ecosse,Grant GILCHRIST,2ème ligne,29 ans,09/08/1990,202, 120
Ecosse,Jonny GRAY,2ème ligne,25 ans,14/03/1994,198, 119
Ecosse,Scott CUMMINGS,2ème ligne,23 ans,03/12/1996,198, 109
Ecosse,Hamish WATSON,3ème ligne,28 ans,15/10/1991,185, 98
Ecosse,Jamie RITCHIE,3ème ligne,23 ans,16/08/1996,193, 106
Ecosse,John BARCLAY,3ème ligne,33 ans,24/09/1986,190, 102
Afrique du sud,Josh STRAUSS,3ème ligne,33 ans,23/10/1986,200, 114
Ecosse,Magnus BRADBURY,3ème ligne,24 ans,23/08/1995,193, 110
Ecosse,Matt FAGERSON,3ème ligne,21 ans,16/07/1998,187, 102
Ecosse,Ryan WILSON,3ème ligne,30 ans,18/05/1989,193, 105
Angleterre,Sam SKINNER,3ème ligne,24 ans,31/01/1995,193, 105
Ecosse,Ali PRICE,Mêlée, 26 ans,12/05/1993,178, 80
Ecosse,George HORNE,Mêlée, 24 ans,12/05/1995,175, 79
Ecosse,Greig LAIDLAW,Mêlée, 34 ans,12/10/1985,176, 78
Ecosse,Henry PYRGOS,Mêlée, 30 ans,09/07/1989,178, 80
Ecosse,Adam HASTINGS,Ouverture, 23 ans,05/10/1996,189, 93
Ecosse,Finn RUSSELL,Ouverture, 27 ans,23/09/1992,183, 87
Ecosse,Byron MCGUIGAN,Centre,30 ans,20/08/1989,183, 111
Angleterre,Chris HARRIS,Centre,28 ans,28/12/1990,190, 101
Ecosse,Duncan TAYLOR,Centre,30 ans,05/09/1989,189, 92
Ecosse,Huw JONES,Centre,26 ans,17/12/1993,186, 96
Ecosse,Peter HORNE,Centre,30 ans,05/10/1989,186, 94
Angleterre,Rory HUTCHINSON,Centre,23 ans,29/01/1996,181, 95
Australie, Sam JOHNSON,Centre,26 ans,19/06/1993,185, 102
Ecosse,Darcy GRAHAM,Ailier,22 ans,21/06/1997,176, 84
Nouvelle-Zélande,Sean MAITLAND, Ailier,31 ans,14/09/1988,189, 97
Ecosse,Tommy SEYMOUR, Ailier,31 ans,01/07/1988,183, 95
Ecosse,Blair KINGHORN,Arrière,22 ans,18/01/1997,194, 100
Ecosse,Stuart HOGG,Arrière,27 ans,24/06/1992,183, 83
Pays-de-Galles,Leon BROWN,Pilier,23 ans,26/10/1996,191, 126
Pays-de-Galles,Nicky SMITH,Pilier,25 ans,07/04/1994,183, 113
Pays-de-Galles,Rhys CARRE,Pilier,21 ans,08/02/1998,187, 130
Pays-de-Galles,Rob EVANS,Pilier,27 ans,14/04/1992,186, 116
Pays-de-Galles,Samson LEE,Pilier,27 ans,30/11/1992,180, 115
Angleterre,Tomas FRANCIS,Pilier,27 ans,27/04/1992,186, 135
Pays-de-Galles,Wyn JONES,Pilier,27 ans,26/02/1992,184, 114
Pays-de-Galles,Elliot DEE,Talonneur, 25 ans,07/03/1994,182, 104
Pays-de-Galles,Ken OWENS,Talonneur, 32 ans,03/01/1987,185, 109
Pays-de-Galles,Ryan ELIAS,Talonneur, 24 ans,07/01/1995,187, 110
Pays-de-Galles,Adam BEARD,2ème ligne,23 ans,07/01/1996,203, 117
Pays-de-Galles,Alun Wyn JONES,2ème ligne,34 ans,19/09/1985,196, 119
Pays-de-Galles,Bradley DAVIES,2ème ligne,32 ans,09/01/1987,198, 122
Pays-de-Galles,Jake BALL,2ème ligne,28 ans,21/06/1991,200, 121
Pays-de-Galles,Aaron SHINGLER,3ème ligne,32 ans,07/08/1987,196, 105
Pays-de-Galles,Aaron WAINWRIGHT,3ème ligne,22 ans,25/09/1997,190, 102
Pays-de-Galles,James DAVIES,3ème ligne,29 ans,25/10/1990,187, 93
Pays-de-Galles,Josh NAVIDI,3ème ligne,28 ans,30/12/1990,185, 105
Pays-de-Galles,Justin TIPURIC,3ème ligne,30 ans,06/08/1989,188, 107
Angleterre,Ross MORIARTY,3ème ligne,25 ans,18/04/1994,188, 103
Pays-de-Galles,Aled DAVIES,Mêlée, 27 ans,19/07/1992,176, 86
Pays-de-Galles,Gareth DAVIES,Mêlée, 29 ans,18/08/1990,178, 88
Angleterre,Jonah HOLMES,Mêlée, 27 ans,24/07/1992,185, 92
Pays-de-Galles,Tomos WILLIAMS,Mêlée, 24 ans,01/01/1995,178, 77
Pays-de-Galles,Dan BIGGAR,Ouverture, 30 ans,16/10/1989,188, 87
Nouvelle-Zélande,Gareth ANSCOMBE,Ouverture, 28 ans,10/05/1991,183, 87
Pays-de-Galles,Jarrod EVANS,Ouverture, 23 ans,25/07/1996,177, 86
Pays-de-Galles,Rhys PATCHELL,Ouverture, 26 ans,17/05/1993,191, 92
Nouvelle-Zélande,Hadleigh PARKES,Centre,32 ans,05/10/1987,187, 101
Pays-de-Galles,Jonathan DAVIES,Centre,31 ans,05/04/1988,186, 104
Pays-de-Galles,Owen LANE,Centre,22 ans,20/12/1997,185, 100
Pays-de-Galles,Owen WATKIN,Centre,23 ans,12/10/1996,188, 112
Pays-de-Galles,Scott WILLIAMS,Centre,29 ans,10/10/1990,187, 100
Pays-de-Galles,Josh ADAMS,Ailier,24 ans,21/04/1995,188, 94
Pays-de-Galles,Hallam AMOS,Arrière,25 ans,24/09/1994,186, 96
Pays-de-Galles,Leigh HALFPENNY,Arrière,31 ans,22/12/1988,178, 85
Pays-de-Galles,Liam WILLIAMS,Arrière,28 ans,09/04/1991,188, 87
Pays-de-Galles,Steff EVANS,Arrière,25 ans,01/09/1994,182, 95
Irlande,Andrew PORTER,Pilier,23 ans,16/01/1996,184, 125
Irlande,Cian HEALY,Pilier,32 ans,07/10/1987,186, 112
Irlande,Dave KILCOYNE,Pilier,31 ans,14/12/1988,185, 118
Irlande,Jack MCGRATH,Pilier,30 ans,11/10/1989,185, 121
Irlande,John RYAN,Pilier,31 ans,02/08/1988,185, 121
Irlande,Tadhg FURLONG,Pilier,27 ans,14/11/1992,184, 119
Irlande,Niall SCANNELL,Talonneur, 27 ans,08/04/1992,188, 108
Afrique du sud,Rob HERRING,Talonneur, 29 ans,27/04/1990,184, 103
Irlande,Rory BEST,Talonneur, 37 ans,15/08/1982,180, 107
Irlande,Sean CRONIN,Talonneur, 33 ans,06/05/1986,183, 101
Irlande,Devin TONER,2ème ligne,33 ans,29/06/1986,208, 124
Irlande,Iain HENDERSON,2ème ligne,27 ans,21/02/1992,198, 116
Irlande,James RYAN,2ème ligne,23 ans,24/07/1996,203, 108
Afrique du sud,Jean KLEYN,2ème ligne,26 ans,26/08/1993,203, 120
Irlande,Tadhg BEIRNE,2ème ligne,27 ans,08/01/1992,198, 110
Irlande,Jack CONAN,3ème ligne,27 ans,29/07/1992,193, 108
Irlande,Jordi MURPHY,3ème ligne,28 ans,22/04/1991,188, 106
Irlande,Josh VAN DER FLIER,3ème ligne,26 ans,25/04/1993,183, 105
Irlande,Peter O'MAHONY,3ème ligne,30 ans,17/09/1989,191, 108
Irlande,Rhys RUDDOCK,3ème ligne,29 ans,13/11/1990,191, 111
Irlande,Tommy O'DONNELL,3ème ligne,32 ans,21/05/1987,185, 107
Irlande,Conor MURRAY,Mêlée, 30 ans,20/04/1989,188, 94
Irlande,Kieran MARMION,Mêlée, 27 ans,11/02/1992,182, 84
Irlande,Luke MCGRATH,Mêlée, 26 ans,03/02/1993,174, 83
Irlande,Jack CARTY,Ouverture, 27 ans,31/08/1992,181, 92
Nouvelle-Zélande,Joey CARBERY,Ouverture, 24 ans,01/11/1995,183, 86
Irlande,Jonathan SEXTON,Ouverture, 34 ans,11/07/1985,188, 92
Irlande,Ross BYRNE,Ouverture, 24 ans,08/04/1995,190, 95
Nouvelle-Zélande,Bundee AKI,Centre,29 ans,07/04/1990,178, 92
Irlande,Chris FARRELL,Centre,26 ans,16/03/1993,195, 105
Irlande,Garry RINGROSE,Centre,24 ans,26/01/1995,186, 92
Irlande,Jacob STOCKDALE,Centre,23 ans,03/04/1996,195, 96
Irlande,Keith EARLS,Centre,32 ans,02/10/1987,180, 90
Irlande,Robbie HENSHAW,Centre,26 ans,12/06/1993,191, 103
Angleterre,Will ADDISON,Centre,27 ans,20/08/1992,178, 95
Irlande,Andrew CONWAY, Ailier,28 ans,11/07/1991,180, 91
Irlande,Dave KEARNEY,Ailier,30 ans,19/06/1989,180, 91
Irlande,Jordan LARMOUR,Ailier,22 ans,10/06/1997,178, 91
Angleterre,Mike HALEY,Arrière,25 ans,28/06/1994,188, 89
Irlande,Rob KEARNEY,Arrière,33 ans,26/03/1986,185, 95
Italie,Andrea LOVOTTI,Pilier,30 ans,28/07/1989,183, 111
Italie,Federico ZANI,Pilier,30 ans,09/04/1989,178, 110
Italie,Nicola QUAGLIO,Pilier,28 ans,09/03/1991,185, 120
Italie,Simone FERRARI,Pilier,25 ans,28/03/1994,185, 124
Italie,Tiziano PASQUALI,Pilier,25 ans,14/07/1994,185, 118
Italie,Luca BIGI,Talonneur, 28 ans,19/04/1991,181, 100
Italie,Oliviero FABIANI,Talonneur, 29 ans,13/07/1990,180, 98
Italie,Federico RUZZA,2ème ligne,25 ans,04/08/1994,198, 108
Italie,Seb NEGRI,2ème ligne,25 ans,30/06/1994,194, 110
Italie,Alessandro ZANNI,3ème ligne,35 ans,31/01/1984,193, 107
Afrique du sud,Braam STEYN,3ème ligne,27 ans,02/05/1992,193, 111
Angleterre,David SISI,3ème ligne,26 ans,05/02/1993,193, 117
Nouvelle-Zélande,Dean BUDD,3ème ligne,33 ans,31/07/1986,196, 108
Italie,Giovanni LICATA,3ème ligne,22 ans,18/02/1997,190, 106
Angleterre,Jake POLLEDRI,3ème ligne,24 ans,08/11/1995,190, 108
Nouvelle-Zélande,Jim TUIVAITI,3ème ligne,31 ans,02/01/1988,188, 113
Italie,Marco LAZZARONI,3ème ligne,24 ans,18/05/1995,194, 105
Italie,Maxime MBANDA,3ème ligne,26 ans,10/04/1993,189, 110
Italie,Renato GIAMMARIOLI,3ème ligne,24 ans,23/03/1995,187, 104
Italie,Sergio PARISSE,3ème ligne,36 ans,12/09/1983,196, 122
Angleterre,Callum BRALEY,Mêlée, 25 ans,23/03/1994,178, 82
Italie,Gullo PALAZZANI,Mêlée, 28 ans,11/04/1991,173, 85
Italie,Tito TEBALDI,Mêlée, 32 ans,23/09/1987,185, 87
Italie,Carlo CANNA,Ouverture, 27 ans,25/08/1992,190, 93
Irlande,Ian MCKINLEY,Ouverture, 30 ans,04/12/1989,184, 88
Italie,Tommy ALLAN,Ouverture, 26 ans,26/04/1993,184, 87
Italie,Giulio BISEGNI,Centre,27 ans,04/04/1992,180, 83
Italie,Luca MORISI,Centre,28 ans,22/02/1991,183, 91
Italie,Marco ZANON,Centre,22 ans,13/10/1997,186, 96
Italie,Michele CAMPAGNARO,Centre,26 ans,13/03/1993,184, 90
Italie,Tommaso BENVENUTI,Centre,29 ans,12/12/1990,187, 96
Italie,Angelo ESPOSITO,Ailier,26 ans,14/06/1993,187, 90
Nouvelle-Zélande,Jayden HAYWARD,Ailier,32 ans,11/02/1987,185, 92
Italie,Mattia BELLINI,Ailier,25 ans,08/02/1994,193, 93
Italie,Edoardo PADOVANI,Arrière,26 ans,15/05/1993,189, 90
Italie,Matteo MINOZZI,Arrière,23 ans,04/06/1996,175, 79
